…
``` r
mvadf <- read_csv("../data/data_R_MVA.csv")
```

# 5 Wrangling

``` r
mvadf
```

    ## # A tibble: 600 x 41
    ##       GY TILL  FUNG  INOC    SOM  Clay  Silt  Sand Pp_pre  Pp_1  Pp_2  Pp_3
    ##    <dbl> <chr> <chr> <chr> <dbl> <dbl> <dbl> <dbl>  <dbl> <dbl> <dbl> <dbl>
    ##  1  5682 Y     X1    Y     2.94   41.4  56.8   1.8   50.0 127.  111.   50.6
    ##  2  2791 N     X1    Y     0.920   2.7  21.4  75.9   69.8 148.   56.4 138. 
    ##  3  4113 N     NF    N     2.92   15    65    20    122.  122.   71.6  92.1
    ##  4  4850 N     X1    Y     4.81   12.4  45    42.6  101.  189.  186.   68.7
    ##  5  5886 N     NF    N     3.90   16    53.7  30.3  148.  104.   87.9 126. 
    ##  6  3397 Y     NF    N     2.52   38.3  55.7   6    109.   25.1  41.4 119. 
    ##  7  3258 Y     X1    N     2.46   15    81     4     38   102.   83.8 131. 
    ##  8  4533 Y     X1    N     4.72   30.4  65.4   4.2   35.4 102.   94.3 120. 
    ##  9  5567 N     X1    Y     5.10   12.7  51.4  35.9  114.  108.  113.  135. 
    ## 10  5280 Y     X1    Y     5.11   12.8  49.2  38    122.   61.2  30.0 170. 
    ## # … with 590 more rows, and 29 more variables: Pp_4 <dbl>, SDI_pre <dbl>,
    ## #   SDI_1 <dbl>, SDI_2 <dbl>, SDI_3 <dbl>, SDI_4 <dbl>, AWDR_pre <dbl>,
    ## #   AWDR_1 <dbl>, AWDR_2 <dbl>, AWDR_3 <dbl>, AWDR_4 <dbl>, Tm_pre <dbl>,
    ## #   Tm_1 <dbl>, Tm_2 <dbl>, Tm_3 <dbl>, Tm_4 <dbl>, Rad_1 <dbl>, Rad_2 <dbl>,
    ## #   Rad_3 <dbl>, Rad_4 <dbl>, vpd_pre <dbl>, vpd_1 <dbl>, vpd_2 <dbl>,
    ## #   vpd_3 <dbl>, vpd_4 <dbl>, Q_1 <dbl>, Q_2 <dbl>, Q_3 <dbl>, Q_4 <dbl>
…
AND

select some numerical variables to continue our analysis (precip,
temperature, radiation, and vapor pressure deficit).

``` r
mvadf_w <- mvadf %>%
  clean_names() %>%
  mutate(across(where(is.character), factor)) %>%
  dplyr::select(gy:sand, starts_with(c("pp_","tm_","rad_","vpd_")))

mvadf_w
```

    ## # A tibble: 600 x 27
    ##       gy till  fung  inoc    som  clay  silt  sand pp_pre  pp_1  pp_2  pp_3
    ##    <dbl> <fct> <fct> <fct> <dbl> <dbl> <dbl> <dbl>  <dbl> <dbl> <dbl> <dbl>
    ##  1  5682 Y     X1    Y     2.94   41.4  56.8   1.8   50.0 127.  111.   50.6
    ##  2  2791 N     X1    Y     0.920   2.7  21.4  75.9   69.8 148.   56.4 138. 
    ##  3  4113 N     NF    N     2.92   15    65    20    122.  122.   71.6  92.1
    ##  4  4850 N     X1    Y     4.81   12.4  45    42.6  101.  189.  186.   68.7
    ##  5  5886 N     NF    N     3.90   16    53.7  30.3  148.  104.   87.9 126. 
    ##  6  3397 Y     NF    N     2.52   38.3  55.7   6    109.   25.1  41.4 119. 
    ##  7  3258 Y     X1    N     2.46   15    81     4     38   102.   83.8 131. 
    ##  8  4533 Y     X1    N     4.72   30.4  65.4   4.2   35.4 102.   94.3 120. 
    ##  9  5567 N     X1    Y     5.10   12.7  51.4  35.9  114.  108.  113.  135. 
    ## 10  5280 Y     X1    Y     5.11   12.8  49.2  38    122.   61.2  30.0 170. 
    ## # … with 590 more rows, and 15 more variables: pp_4 <dbl>, tm_pre <dbl>,
    ## #   tm_1 <dbl>, tm_2 <dbl>, tm_3 <dbl>, tm_4 <dbl>, rad_1 <dbl>, rad_2 <dbl>,
    ## #   rad_3 <dbl>, rad_4 <dbl>, vpd_pre <dbl>, vpd_1 <dbl>, vpd_2 <dbl>,
    ## #   vpd_3 <dbl>, vpd_4 <dbl>
…
Some analysis do the normalization for you (like PCA), and others don’t
(like k-means), so need to be aware of this to ensure data is
normalized.

Since both PCA and k-means only take numerical variables, let’s select
them now.

``` r
mvadf_wn <- mvadf_w %>%
  dplyr::select(where(is.numeric), -gy) 

mvadf_wn
```

    ## # A tibble: 600 x 23
    ##      som  clay  silt  sand pp_pre  pp_1  pp_2  pp_3  pp_4 tm_pre  tm_1  tm_2
    ##    <dbl> <dbl> <dbl> <dbl>  <dbl> <dbl> <dbl> <dbl> <dbl>  <dbl> <dbl> <dbl>
    ##  1 2.94   41.4  56.8   1.8   50.0 127.  111.   50.6  42.8  11.7   16.1  20.6
    ##  2 0.920   2.7  21.4  75.9   69.8 148.   56.4 138.   80.5  18.3   20.6  25.5
    ##  3 2.92   15    65    20    122.  122.   71.6  92.1  80.3  10.4   14.8  16.9
    ##  4 4.81   12.4  45    42.6  101.  189.  186.   68.7 222.   15.3   23.5  24.0
    ##  5 3.90   16    53.7  30.3  148.  104.   87.9 126.  107.   12.0   17.3  21.1
    ##  6 2.52   38.3  55.7   6    109.   25.1  41.4 119.   35    16.3   16.8  21.3
    ##  7 2.46   15    81     4     38   102.   83.8 131.   41.3   8.55  16.3  20.9
    ##  8 4.72   30.4  65.4   4.2   35.4 102.   94.3 120.  151.   11.5   15.4  21.3
    ##  9 5.10   12.7  51.4  35.9  114.  108.  113.  135.   66.5  13.6   18.7  23.0
    ## 10 5.11   12.8  49.2  38    122.   61.2  30.0 170.   67.3  14.1   19.3  23.7
    ## # … with 590 more rows, and 11 more variables: tm_3 <dbl>, tm_4 <dbl>,
    ## #   rad_1 <dbl>, rad_2 <dbl>, rad_3 <dbl>, rad_4 <dbl>, vpd_pre <dbl>,
    ## #   vpd_1 <dbl>, vpd_2 <dbl>, vpd_3 <dbl>, vpd_4 <dbl>
…
What now?  
Let’s add the first 5 PCs to our original dataset and run a regression
versus grain yield.

``` r
# Extract first 5 PCs scores
pca_scores <- mod_pca$x %>%
  as.data.frame() %>%
  dplyr::select(PC1:PC5)

pca_scores %>%
  as_tibble()
```

    ## # A tibble: 600 x 5
    ##       PC1    PC2    PC3    PC4     PC5
    ##     <dbl>  <dbl>  <dbl>  <dbl>   <dbl>
    ##  1  0.226 -1.35  -0.483 -1.99  -0.382 
    ##  2 -5.55  -0.328  2.43   3.36  -1.09  
    ##  3  2.19   1.97   0.406 -1.22   1.16  
    ##  4 -3.15   2.52  -1.58   1.83   2.54  
    ##  5  0.160  1.21   0.545  0.185 -0.0821
    ##  6 -2.44  -3.95   2.32  -1.59  -2.48  
    ##  7  0.135 -1.48  -0.364 -0.992 -0.793 
    ##  8  1.13  -1.36  -1.13  -1.07   0.484 
    ##  9 -1.24   2.06   1.14   0.409 -0.528 
    ## 10 -1.92   1.29   2.45   0.324 -0.853 
    ## # … with 590 more rows
…
